info face="Dimbo" size=40 bold=0 italic=0 charset="" unicode=1 stretchH=100 smooth=1 aa=2 padding=0,0,0,0 spacing=1,1 outline=0
common lineHeight=40 base=33 scaleW=256 scaleH=256 pages=1 packed=0 alphaChnl=0 redChnl=4 greenChnl=4 blueChnl=4
page id=0 file="Dimbo40_0.png"
chars count=178
char id=32   x=251   y=2     width=2     height=1     xoffset=0     yoffset=39    xadvance=6     page=0  chnl=15
char id=33   x=75    y=201   width=6     height=24    xoffset=0     yoffset=9     xadvance=5     page=0  chnl=15
char id=34   x=232   y=230   width=11    height=9     xoffset=0     yoffset=6     xadvance=12    page=0  chnl=15
char id=35   x=44    y=98    width=21    height=25    xoffset=0     yoffset=8     xadvance=21    page=0  chnl=15
char id=36   x=206   y=0     width=14    height=32    xoffset=0     yoffset=5     xadvance=15    page=0  chnl=15
char id=37   x=100   y=66    width=28    height=27    xoffset=0     yoffset=6     xadvance=28    page=0  chnl=15
char id=38   x=192   y=92    width=16    height=25    xoffset=0     yoffset=7     xadvance=15    page=0  chnl=15
char id=39   x=13    y=247   width=6     height=8     xoffset=0     yoffset=6     xadvance=6     page=0  chnl=15
char id=40   x=92    y=33    width=8     height=32    xoffset=0     yoffset=5     xadvance=9     page=0  chnl=15
char id=41   x=83    y=33    width=8     height=32    xoffset=0     yoffset=5     xadvance=9     page=0  chnl=15
char id=42   x=221   y=230   width=10    height=10    xoffset=0     yoffset=6     xadvance=10    page=0  chnl=15
char id=43   x=238   y=214   width=15    height=15    xoffset=0     yoffset=13    xadvance=15    page=0  chnl=15
char id=44   x=244   y=230   width=6     height=9     xoffset=0     yoffset=27    xadvance=6     page=0  chnl=15
char id=45   x=78    y=245   width=10    height=5     xoffset=0     yoffset=18    xadvance=9     page=0  chnl=15
char id=46   x=71    y=246   width=6     height=6     xoffset=0     yoffset=27    xadvance=6     page=0  chnl=15
char id=47   x=26    y=66    width=11    height=31    xoffset=0     yoffset=5     xadvance=10    page=0  chnl=15
char id=48   x=0     y=126   width=15    height=25    xoffset=0     yoffset=7     xadvance=15    page=0  chnl=15
char id=49   x=103   y=148   width=10    height=25    xoffset=0     yoffset=7     xadvance=10    page=0  chnl=15
char id=50   x=30    y=178   width=14    height=24    xoffset=0     yoffset=7     xadvance=14    page=0  chnl=15
char id=51   x=78    y=122   width=14    height=25    xoffset=0     yoffset=7     xadvance=13    page=0  chnl=15
char id=52   x=225   y=92    width=15    height=25    xoffset=0     yoffset=7     xadvance=15    page=0  chnl=15
char id=53   x=0     y=178   width=14    height=24    xoffset=0     yoffset=7     xadvance=13    page=0  chnl=15
char id=54   x=228   y=65    width=14    height=26    xoffset=0     yoffset=6     xadvance=14    page=0  chnl=15
char id=55   x=173   y=170   width=13    height=24    xoffset=0     yoffset=7     xadvance=13    page=0  chnl=15
char id=56   x=63    y=124   width=14    height=25    xoffset=0     yoffset=7     xadvance=13    page=0  chnl=15
char id=57   x=213   y=65    width=14    height=26    xoffset=0     yoffset=6     xadvance=14    page=0  chnl=15
char id=58   x=246   y=194   width=6     height=19    xoffset=0     yoffset=14    xadvance=6     page=0  chnl=15
char id=59   x=170   y=196   width=6     height=21    xoffset=0     yoffset=15    xadvance=6     page=0  chnl=15
char id=60   x=233   y=194   width=12    height=19    xoffset=0     yoffset=10    xadvance=13    page=0  chnl=15
char id=61   x=161   y=237   width=14    height=13    xoffset=0     yoffset=13    xadvance=14    page=0  chnl=15
char id=62   x=0     y=228   width=12    height=19    xoffset=0     yoffset=10    xadvance=13    page=0  chnl=15
char id=63   x=123   y=120   width=14    height=25    xoffset=0     yoffset=8     xadvance=14    page=0  chnl=15
char id=64   x=58    y=66    width=24    height=29    xoffset=0     yoffset=9     xadvance=24    page=0  chnl=15
char id=65   x=139   y=93    width=17    height=25    xoffset=0     yoffset=7     xadvance=16    page=0  chnl=15
char id=66   x=32    y=125   width=15    height=25    xoffset=0     yoffset=7     xadvance=15    page=0  chnl=15
char id=67   x=16    y=126   width=15    height=25    xoffset=0     yoffset=7     xadvance=14    page=0  chnl=15
char id=68   x=93    y=122   width=14    height=25    xoffset=0     yoffset=7     xadvance=14    page=0  chnl=15
char id=69   x=145   y=171   width=13    height=24    xoffset=0     yoffset=8     xadvance=13    page=0  chnl=15
char id=70   x=128   y=196   width=11    height=23    xoffset=0     yoffset=8     xadvance=12    page=0  chnl=15
char id=71   x=180   y=144   width=16    height=24    xoffset=0     yoffset=8     xadvance=16    page=0  chnl=15
char id=72   x=108   y=120   width=14    height=25    xoffset=0     yoffset=8     xadvance=15    page=0  chnl=15
char id=73   x=82    y=201   width=6     height=24    xoffset=0     yoffset=8     xadvance=6     page=0  chnl=15
char id=74   x=60    y=176   width=14    height=24    xoffset=0     yoffset=8     xadvance=15    page=0  chnl=15
char id=75   x=229   y=144   width=15    height=24    xoffset=0     yoffset=8     xadvance=15    page=0  chnl=15
char id=76   x=208   y=118   width=13    height=25    xoffset=0     yoffset=7     xadvance=14    page=0  chnl=15
char id=77   x=175   y=65    width=22    height=26    xoffset=0     yoffset=7     xadvance=21    page=0  chnl=15
char id=78   x=209   y=92    width=15    height=25    xoffset=0     yoffset=7     xadvance=15    page=0  chnl=15
char id=79   x=175   y=92    width=16    height=25    xoffset=0     yoffset=7     xadvance=16    page=0  chnl=15
char id=80   x=15    y=178   width=14    height=24    xoffset=0     yoffset=8     xadvance=14    page=0  chnl=15
char id=81   x=129   y=65    width=16    height=27    xoffset=0     yoffset=7     xadvance=16    page=0  chnl=15
char id=82   x=146   y=65    width=14    height=27    xoffset=0     yoffset=7     xadvance=15    page=0  chnl=15
char id=83   x=198   y=65    width=14    height=26    xoffset=0     yoffset=7     xadvance=15    page=0  chnl=15
char id=84   x=131   y=171   width=13    height=24    xoffset=0     yoffset=8     xadvance=14    page=0  chnl=15
char id=85   x=48    y=124   width=14    height=25    xoffset=0     yoffset=7     xadvance=15    page=0  chnl=15
char id=86   x=85    y=96    width=17    height=25    xoffset=-1    yoffset=7     xadvance=15    page=0  chnl=15
char id=87   x=114   y=146   width=24    height=24    xoffset=-1    yoffset=8     xadvance=22    page=0  chnl=15
char id=88   x=163   y=145   width=16    height=24    xoffset=0     yoffset=8     xadvance=15    page=0  chnl=15
char id=89   x=157   y=93    width=17    height=25    xoffset=-1    yoffset=7     xadvance=14    page=0  chnl=15
char id=90   x=89    y=199   width=13    height=23    xoffset=0     yoffset=8     xadvance=13    page=0  chnl=15
char id=91   x=247   y=33    width=8     height=31    xoffset=0     yoffset=5     xadvance=9     page=0  chnl=15
char id=92   x=14    y=67    width=11    height=31    xoffset=0     yoffset=5     xadvance=10    page=0  chnl=15
char id=93   x=38    y=66    width=9     height=31    xoffset=0     yoffset=5     xadvance=9     page=0  chnl=15
char id=94   x=176   y=236   width=16    height=10    xoffset=0     yoffset=5     xadvance=16    page=0  chnl=15
char id=95   x=95    y=242   width=13    height=4     xoffset=0     yoffset=35    xadvance=11    page=0  chnl=15
char id=96   x=28    y=247   width=7     height=7     xoffset=0     yoffset=7     xadvance=6     page=0  chnl=15
char id=97   x=89    y=223   width=13    height=18    xoffset=0     yoffset=14    xadvance=13    page=0  chnl=15
char id=98   x=14    y=203   width=13    height=24    xoffset=0     yoffset=8     xadvance=14    page=0  chnl=15
char id=99   x=129   y=220   width=12    height=18    xoffset=0     yoffset=14    xadvance=12    page=0  chnl=15
char id=100  x=0     y=203   width=13    height=24    xoffset=0     yoffset=8     xadvance=14    page=0  chnl=15
char id=101  x=196   y=215   width=12    height=17    xoffset=0     yoffset=15    xadvance=12    page=0  chnl=15
char id=102  x=243   y=65    width=12    height=26    xoffset=0     yoffset=7     xadvance=11    page=0  chnl=15
char id=103  x=14    y=99    width=13    height=26    xoffset=0     yoffset=14    xadvance=13    page=0  chnl=15
char id=104  x=180   y=118   width=13    height=25    xoffset=0     yoffset=8     xadvance=13    page=0  chnl=15
char id=105  x=68    y=201   width=6     height=24    xoffset=0     yoffset=9     xadvance=5     page=0  chnl=15
char id=106  x=48    y=66    width=9     height=31    xoffset=-3    yoffset=9     xadvance=5     page=0  chnl=15
char id=107  x=28    y=203   width=13    height=24    xoffset=0     yoffset=8     xadvance=13    page=0  chnl=15
char id=108  x=250   y=118   width=5     height=25    xoffset=1     yoffset=8     xadvance=6     page=0  chnl=15
char id=109  x=177   y=195   width=19    height=19    xoffset=0     yoffset=14    xadvance=19    page=0  chnl=15
char id=110  x=155   y=218   width=12    height=18    xoffset=0     yoffset=14    xadvance=13    page=0  chnl=15
char id=111  x=182   y=215   width=13    height=17    xoffset=0     yoffset=15    xadvance=12    page=0  chnl=15
char id=112  x=159   y=171   width=13    height=24    xoffset=0     yoffset=15    xadvance=14    page=0  chnl=15
char id=113  x=194   y=118   width=13    height=25    xoffset=0     yoffset=15    xadvance=14    page=0  chnl=15
char id=114  x=103   y=223   width=12    height=18    xoffset=0     yoffset=15    xadvance=12    page=0  chnl=15
char id=115  x=116   y=223   width=12    height=18    xoffset=0     yoffset=15    xadvance=12    page=0  chnl=15
char id=116  x=116   y=199   width=11    height=23    xoffset=0     yoffset=9     xadvance=11    page=0  chnl=15
char id=117  x=142   y=219   width=12    height=18    xoffset=0     yoffset=14    xadvance=13    page=0  chnl=15
char id=118  x=74    y=226   width=14    height=18    xoffset=0     yoffset=14    xadvance=12    page=0  chnl=15
char id=119  x=13    y=228   width=21    height=18    xoffset=0     yoffset=14    xadvance=19    page=0  chnl=15
char id=120  x=168   y=218   width=13    height=17    xoffset=0     yoffset=15    xadvance=13    page=0  chnl=15
char id=121  x=0     y=99    width=13    height=26    xoffset=0     yoffset=14    xadvance=13    page=0  chnl=15
char id=122  x=209   y=214   width=11    height=17    xoffset=0     yoffset=15    xadvance=11    page=0  chnl=15
char id=123  x=189   y=33    width=14    height=31    xoffset=0     yoffset=5     xadvance=14    page=0  chnl=15
char id=124  x=117   y=33    width=5     height=32    xoffset=0     yoffset=5     xadvance=5     page=0  chnl=15
char id=125  x=204   y=33    width=14    height=31    xoffset=0     yoffset=5     xadvance=14    page=0  chnl=15
char id=126  x=43    y=247   width=14    height=6     xoffset=0     yoffset=17    xadvance=14    page=0  chnl=15
char id=160  x=251   y=0     width=2     height=1     xoffset=0     yoffset=39    xadvance=6     page=0  chnl=15
char id=161  x=245   y=144   width=6     height=24    xoffset=0     yoffset=14    xadvance=6     page=0  chnl=15
char id=162  x=103   y=199   width=12    height=23    xoffset=0     yoffset=5     xadvance=12    page=0  chnl=15
char id=163  x=213   y=144   width=15    height=24    xoffset=0     yoffset=8     xadvance=15    page=0  chnl=15
char id=165  x=103   y=94    width=17    height=25    xoffset=0     yoffset=7     xadvance=17    page=0  chnl=15
char id=168  x=58    y=246   width=12    height=6     xoffset=0     yoffset=7     xadvance=13    page=0  chnl=15
char id=169  x=197   y=194   width=17    height=19    xoffset=1     yoffset=12    xadvance=18    page=0  chnl=15
char id=171  x=129   y=239   width=15    height=14    xoffset=0     yoffset=14    xadvance=15    page=0  chnl=15
char id=172  x=193   y=233   width=15    height=10    xoffset=0     yoffset=18    xadvance=15    page=0  chnl=15
char id=174  x=215   y=194   width=17    height=19    xoffset=1     yoffset=12    xadvance=18    page=0  chnl=15
char id=176  x=209   y=232   width=11    height=10    xoffset=0     yoffset=9     xadvance=11    page=0  chnl=15
char id=177  x=154   y=196   width=15    height=21    xoffset=0     yoffset=11    xadvance=15    page=0  chnl=15
char id=180  x=20    y=247   width=7     height=7     xoffset=0     yoffset=7     xadvance=6     page=0  chnl=15
char id=181  x=65    y=150   width=12    height=25    xoffset=0     yoffset=14    xadvance=13    page=0  chnl=15
char id=182  x=66    y=96    width=18    height=25    xoffset=0     yoffset=8     xadvance=18    page=0  chnl=15
char id=183  x=89    y=242   width=5     height=5     xoffset=0     yoffset=18    xadvance=6     page=0  chnl=15
char id=184  x=36    y=247   width=6     height=7     xoffset=0     yoffset=33    xadvance=7     page=0  chnl=15
char id=187  x=145   y=238   width=15    height=14    xoffset=0     yoffset=14    xadvance=15    page=0  chnl=15
char id=191  x=117   y=171   width=13    height=24    xoffset=0     yoffset=15    xadvance=14    page=0  chnl=15
char id=192  x=122   y=0     width=17    height=32    xoffset=0     yoffset=0     xadvance=16    page=0  chnl=15
char id=193  x=104   y=0     width=17    height=32    xoffset=0     yoffset=0     xadvance=16    page=0  chnl=15
char id=194  x=86    y=0     width=17    height=32    xoffset=0     yoffset=0     xadvance=16    page=0  chnl=15
char id=195  x=14    y=0     width=17    height=32    xoffset=0     yoffset=0     xadvance=16    page=0  chnl=15
char id=196  x=68    y=0     width=17    height=32    xoffset=0     yoffset=0     xadvance=16    page=0  chnl=15
char id=197  x=32    y=0     width=17    height=32    xoffset=0     yoffset=0     xadvance=16    page=0  chnl=15
char id=198  x=139   y=146   width=23    height=24    xoffset=0     yoffset=8     xadvance=23    page=0  chnl=15
char id=199  x=174   y=0     width=15    height=32    xoffset=0     yoffset=7     xadvance=14    page=0  chnl=15
char id=200  x=43    y=33    width=13    height=32    xoffset=0     yoffset=0     xadvance=13    page=0  chnl=15
char id=201  x=57    y=33    width=13    height=32    xoffset=0     yoffset=0     xadvance=13    page=0  chnl=15
char id=202  x=0     y=67    width=13    height=31    xoffset=0     yoffset=1     xadvance=13    page=0  chnl=15
char id=203  x=233   y=33    width=13    height=31    xoffset=0     yoffset=1     xadvance=13    page=0  chnl=15
char id=204  x=101   y=33    width=7     height=32    xoffset=-1    yoffset=0     xadvance=6     page=0  chnl=15
char id=205  x=109   y=33    width=7     height=32    xoffset=0     yoffset=0     xadvance=6     page=0  chnl=15
char id=206  x=71    y=33    width=11    height=32    xoffset=-2    yoffset=0     xadvance=6     page=0  chnl=15
char id=207  x=15    y=33    width=13    height=32    xoffset=-3    yoffset=0     xadvance=6     page=0  chnl=15
char id=208  x=121   y=94    width=17    height=25    xoffset=-2    yoffset=7     xadvance=14    page=0  chnl=15
char id=209  x=190   y=0     width=15    height=32    xoffset=0     yoffset=0     xadvance=15    page=0  chnl=15
char id=210  x=157   y=0     width=16    height=32    xoffset=0     yoffset=0     xadvance=16    page=0  chnl=15
char id=211  x=140   y=0     width=16    height=32    xoffset=0     yoffset=0     xadvance=16    page=0  chnl=15
char id=212  x=123   y=33    width=16    height=31    xoffset=0     yoffset=1     xadvance=16    page=0  chnl=15
char id=213  x=140   y=33    width=16    height=31    xoffset=0     yoffset=1     xadvance=16    page=0  chnl=15
char id=214  x=157   y=33    width=16    height=31    xoffset=0     yoffset=1     xadvance=16    page=0  chnl=15
char id=215  x=221   y=214   width=16    height=15    xoffset=0     yoffset=13    xadvance=16    page=0  chnl=15
char id=216  x=83    y=66    width=16    height=29    xoffset=0     yoffset=5     xadvance=16    page=0  chnl=15
char id=217  x=0     y=34    width=14    height=32    xoffset=0     yoffset=0     xadvance=15    page=0  chnl=15
char id=218  x=236   y=0     width=14    height=32    xoffset=0     yoffset=0     xadvance=15    page=0  chnl=15
char id=219  x=221   y=0     width=14    height=32    xoffset=0     yoffset=0     xadvance=15    page=0  chnl=15
char id=220  x=174   y=33    width=14    height=31    xoffset=0     yoffset=1     xadvance=15    page=0  chnl=15
char id=221  x=50    y=0     width=17    height=32    xoffset=-1    yoffset=0     xadvance=14    page=0  chnl=15
char id=222  x=45    y=177   width=14    height=24    xoffset=0     yoffset=8     xadvance=14    page=0  chnl=15
char id=223  x=241   y=92    width=14    height=25    xoffset=0     yoffset=7     xadvance=15    page=0  chnl=15
char id=224  x=222   y=118   width=13    height=25    xoffset=0     yoffset=7     xadvance=13    page=0  chnl=15
char id=225  x=236   y=118   width=13    height=25    xoffset=0     yoffset=7     xadvance=13    page=0  chnl=15
char id=226  x=103   y=174   width=13    height=24    xoffset=0     yoffset=8     xadvance=13    page=0  chnl=15
char id=227  x=75    y=176   width=13    height=24    xoffset=0     yoffset=8     xadvance=13    page=0  chnl=15
char id=228  x=89    y=174   width=13    height=24    xoffset=0     yoffset=8     xadvance=13    page=0  chnl=15
char id=229  x=161   y=65    width=13    height=27    xoffset=0     yoffset=5     xadvance=13    page=0  chnl=15
char id=230  x=35    y=228   width=21    height=18    xoffset=0     yoffset=14    xadvance=20    page=0  chnl=15
char id=231  x=52    y=150   width=12    height=25    xoffset=0     yoffset=14    xadvance=12    page=0  chnl=15
char id=232  x=0     y=152   width=12    height=25    xoffset=0     yoffset=7     xadvance=12    page=0  chnl=15
char id=233  x=13    y=152   width=12    height=25    xoffset=0     yoffset=7     xadvance=12    page=0  chnl=15
char id=234  x=42    y=203   width=12    height=24    xoffset=0     yoffset=8     xadvance=12    page=0  chnl=15
char id=235  x=229   y=169   width=13    height=24    xoffset=0     yoffset=8     xadvance=12    page=0  chnl=15
char id=236  x=28    y=98    width=7     height=26    xoffset=-1    yoffset=7     xadvance=5     page=0  chnl=15
char id=237  x=36    y=98    width=7     height=26    xoffset=0     yoffset=7     xadvance=5     page=0  chnl=15
char id=238  x=91    y=148   width=11    height=25    xoffset=-2    yoffset=8     xadvance=5     page=0  chnl=15
char id=239  x=138   y=120   width=13    height=25    xoffset=-3    yoffset=8     xadvance=5     page=0  chnl=15
char id=240  x=197   y=144   width=15    height=24    xoffset=0     yoffset=8     xadvance=14    page=0  chnl=15
char id=241  x=55    y=202   width=12    height=24    xoffset=0     yoffset=8     xadvance=13    page=0  chnl=15
char id=242  x=152   y=119   width=13    height=25    xoffset=0     yoffset=7     xadvance=12    page=0  chnl=15
char id=243  x=166   y=119   width=13    height=25    xoffset=0     yoffset=7     xadvance=12    page=0  chnl=15
char id=244  x=187   y=169   width=13    height=24    xoffset=0     yoffset=8     xadvance=12    page=0  chnl=15
char id=245  x=215   y=169   width=13    height=24    xoffset=0     yoffset=8     xadvance=12    page=0  chnl=15
char id=246  x=201   y=169   width=13    height=24    xoffset=0     yoffset=8     xadvance=12    page=0  chnl=15
char id=247  x=57    y=227   width=16    height=18    xoffset=0     yoffset=12    xadvance=16    page=0  chnl=15
char id=248  x=140   y=196   width=13    height=22    xoffset=0     yoffset=13    xadvance=12    page=0  chnl=15
char id=249  x=78    y=148   width=12    height=25    xoffset=0     yoffset=7     xadvance=13    page=0  chnl=15
char id=250  x=39    y=151   width=12    height=25    xoffset=0     yoffset=7     xadvance=13    page=0  chnl=15
char id=251  x=26    y=152   width=12    height=25    xoffset=0     yoffset=7     xadvance=13    page=0  chnl=15
char id=252  x=243   y=169   width=12    height=24    xoffset=0     yoffset=8     xadvance=13    page=0  chnl=15
char id=253  x=0     y=0     width=13    height=33    xoffset=0     yoffset=7     xadvance=13    page=0  chnl=15
char id=254  x=219   y=33    width=13    height=31    xoffset=0     yoffset=8     xadvance=14    page=0  chnl=15
char id=255  x=29    y=33    width=13    height=32    xoffset=0     yoffset=8     xadvance=13    page=0  chnl=15
