info face="Dimbo" size=80 bold=0 italic=0 charset="" unicode=1 stretchH=100 smooth=1 aa=2 padding=0,0,0,0 spacing=1,1 outline=0
common lineHeight=80 base=66 scaleW=512 scaleH=512 pages=1 packed=0 alphaChnl=0 redChnl=4 greenChnl=4 blueChnl=4
page id=0 file="Dimbo80_0.png"
chars count=95
char id=32   x=502   y=51    width=2     height=1     xoffset=0     yoffset=79    xadvance=12    page=0  chnl=15
char id=33   x=85    y=164   width=11    height=47    xoffset=0     yoffset=18    xadvance=11    page=0  chnl=15
char id=34   x=249   y=203   width=22    height=18    xoffset=1     yoffset=12    xadvance=23    page=0  chnl=15
char id=35   x=74    y=115   width=41    height=48    xoffset=1     yoffset=17    xadvance=43    page=0  chnl=15
char id=36   x=0     y=0     width=28    height=63    xoffset=1     yoffset=10    xadvance=30    page=0  chnl=15
char id=37   x=271   y=0     width=54    height=53    xoffset=1     yoffset=13    xadvance=56    page=0  chnl=15
char id=38   x=0     y=64    width=30    height=50    xoffset=0     yoffset=15    xadvance=31    page=0  chnl=15
char id=39   x=304   y=190   width=11    height=17    xoffset=1     yoffset=12    xadvance=12    page=0  chnl=15
char id=40   x=117   y=0     width=16    height=63    xoffset=1     yoffset=10    xadvance=18    page=0  chnl=15
char id=41   x=83    y=0     width=16    height=63    xoffset=1     yoffset=10    xadvance=18    page=0  chnl=15
char id=42   x=272   y=195   width=19    height=18    xoffset=1     yoffset=13    xadvance=21    page=0  chnl=15
char id=43   x=159   y=211   width=29    height=28    xoffset=1     yoffset=27    xadvance=30    page=0  chnl=15
char id=44   x=292   y=195   width=11    height=17    xoffset=1     yoffset=55    xadvance=12    page=0  chnl=15
char id=45   x=370   y=189   width=18    height=9     xoffset=1     yoffset=37    xadvance=19    page=0  chnl=15
char id=46   x=358   y=189   width=11    height=10    xoffset=1     yoffset=55    xadvance=12    page=0  chnl=15
char id=47   x=180   y=0     width=21    height=60    xoffset=0     yoffset=11    xadvance=20    page=0  chnl=15
char id=48   x=213   y=111   width=29    height=48    xoffset=0     yoffset=15    xadvance=29    page=0  chnl=15
char id=49   x=490   y=101   width=19    height=47    xoffset=0     yoffset=16    xadvance=20    page=0  chnl=15
char id=50   x=58    y=164   width=26    height=47    xoffset=1     yoffset=15    xadvance=28    page=0  chnl=15
char id=51   x=61    y=64    width=26    height=50    xoffset=0     yoffset=14    xadvance=27    page=0  chnl=15
char id=52   x=243   y=108   width=29    height=48    xoffset=0     yoffset=15    xadvance=30    page=0  chnl=15
char id=53   x=465   y=51    width=26    height=49    xoffset=0     yoffset=14    xadvance=27    page=0  chnl=15
char id=54   x=355   y=53    width=27    height=49    xoffset=1     yoffset=14    xadvance=29    page=0  chnl=15
char id=55   x=147   y=164   width=24    height=46    xoffset=1     yoffset=15    xadvance=27    page=0  chnl=15
char id=56   x=88    y=64    width=26    height=50    xoffset=0     yoffset=14    xadvance=27    page=0  chnl=15
char id=57   x=326   y=53    width=28    height=49    xoffset=1     yoffset=14    xadvance=29    page=0  chnl=15
char id=58   x=120   y=212   width=11    height=35    xoffset=1     yoffset=30    xadvance=12    page=0  chnl=15
char id=59   x=241   y=160   width=11    height=42    xoffset=1     yoffset=30    xadvance=12    page=0  chnl=15
char id=60   x=253   y=157   width=24    height=37    xoffset=1     yoffset=21    xadvance=25    page=0  chnl=15
char id=61   x=189   y=210   width=27    height=25    xoffset=1     yoffset=27    xadvance=29    page=0  chnl=15
char id=62   x=278   y=157   width=24    height=37    xoffset=1     yoffset=21    xadvance=25    page=0  chnl=15
char id=63   x=0     y=115   width=25    height=49    xoffset=2     yoffset=16    xadvance=28    page=0  chnl=15
char id=64   x=224   y=0     width=46    height=57    xoffset=1     yoffset=19    xadvance=48    page=0  chnl=15
char id=65   x=138   y=64    width=34    height=49    xoffset=-1    yoffset=15    xadvance=31    page=0  chnl=15
char id=66   x=31    y=64    width=29    height=50    xoffset=1     yoffset=14    xadvance=30    page=0  chnl=15
char id=67   x=273   y=108   width=28    height=48    xoffset=1     yoffset=16    xadvance=29    page=0  chnl=15
char id=68   x=383   y=53    width=27    height=49    xoffset=1     yoffset=15    xadvance=29    page=0  chnl=15
char id=69   x=172   y=163   width=24    height=46    xoffset=1     yoffset=17    xadvance=26    page=0  chnl=15
char id=70   x=197   y=161   width=22    height=46    xoffset=1     yoffset=16    xadvance=24    page=0  chnl=15
char id=71   x=206   y=61    width=31    height=49    xoffset=0     yoffset=16    xadvance=32    page=0  chnl=15
char id=72   x=297   y=54    width=28    height=49    xoffset=1     yoffset=16    xadvance=30    page=0  chnl=15
char id=73   x=109   y=164   width=11    height=47    xoffset=1     yoffset=16    xadvance=12    page=0  chnl=15
char id=74   x=30    y=164   width=27    height=47    xoffset=1     yoffset=16    xadvance=30    page=0  chnl=15
char id=75   x=0     y=165   width=29    height=47    xoffset=1     yoffset=17    xadvance=30    page=0  chnl=15
char id=76   x=438   y=52    width=26    height=49    xoffset=1     yoffset=15    xadvance=28    page=0  chnl=15
char id=77   x=443   y=0     width=42    height=50    xoffset=0     yoffset=15    xadvance=43    page=0  chnl=15
char id=78   x=238   y=58    width=29    height=49    xoffset=1     yoffset=15    xadvance=31    page=0  chnl=15
char id=79   x=181   y=112   width=31    height=48    xoffset=0     yoffset=16    xadvance=31    page=0  chnl=15
char id=80   x=302   y=104   width=27    height=48    xoffset=1     yoffset=16    xadvance=29    page=0  chnl=15
char id=81   x=384   y=0     width=31    height=51    xoffset=0     yoffset=16    xadvance=31    page=0  chnl=15
char id=82   x=355   y=0     width=28    height=52    xoffset=1     yoffset=15    xadvance=29    page=0  chnl=15
char id=83   x=326   y=0     width=28    height=52    xoffset=1     yoffset=14    xadvance=30    page=0  chnl=15
char id=84   x=330   y=103   width=26    height=48    xoffset=1     yoffset=16    xadvance=27    page=0  chnl=15
char id=85   x=268   y=58    width=28    height=49    xoffset=1     yoffset=15    xadvance=30    page=0  chnl=15
char id=86   x=116   y=115   width=32    height=48    xoffset=-1    yoffset=15    xadvance=30    page=0  chnl=15
char id=87   x=26    y=115   width=47    height=48    xoffset=-2    yoffset=16    xadvance=44    page=0  chnl=15
char id=88   x=149   y=114   width=31    height=48    xoffset=0     yoffset=16    xadvance=30    page=0  chnl=15
char id=89   x=173   y=62    width=32    height=49    xoffset=-1    yoffset=15    xadvance=27    page=0  chnl=15
char id=90   x=121   y=164   width=25    height=46    xoffset=1     yoffset=16    xadvance=27    page=0  chnl=15
char id=91   x=100   y=0     width=16    height=63    xoffset=1     yoffset=10    xadvance=18    page=0  chnl=15
char id=92   x=202   y=0     width=21    height=60    xoffset=0     yoffset=11    xadvance=20    page=0  chnl=15
char id=93   x=134   y=0     width=16    height=63    xoffset=1     yoffset=10    xadvance=18    page=0  chnl=15
char id=94   x=217   y=208   width=31    height=20    xoffset=1     yoffset=10    xadvance=32    page=0  chnl=15
char id=95   x=389   y=189   width=24    height=7     xoffset=0     yoffset=71    xadvance=23    page=0  chnl=15
char id=96   x=344   y=189   width=13    height=13    xoffset=0     yoffset=14    xadvance=13    page=0  chnl=15
char id=97   x=460   y=151   width=25    height=35    xoffset=1     yoffset=29    xadvance=26    page=0  chnl=15
char id=98   x=384   y=103   width=26    height=48    xoffset=1     yoffset=17    xadvance=27    page=0  chnl=15
char id=99   x=50    y=212   width=23    height=35    xoffset=0     yoffset=29    xadvance=24    page=0  chnl=15
char id=100  x=411   y=102   width=26    height=48    xoffset=1     yoffset=17    xadvance=27    page=0  chnl=15
char id=101  x=486   y=151   width=24    height=35    xoffset=0     yoffset=30    xadvance=24    page=0  chnl=15
char id=102  x=115   y=64    width=22    height=50    xoffset=0     yoffset=15    xadvance=23    page=0  chnl=15
char id=103  x=416   y=0     width=26    height=51    xoffset=1     yoffset=29    xadvance=27    page=0  chnl=15
char id=104  x=438   y=102   width=25    height=48    xoffset=0     yoffset=17    xadvance=26    page=0  chnl=15
char id=105  x=97    y=164   width=11    height=47    xoffset=0     yoffset=18    xadvance=11    page=0  chnl=15
char id=106  x=161   y=0     width=18    height=61    xoffset=-6    yoffset=18    xadvance=11    page=0  chnl=15
char id=107  x=464   y=102   width=25    height=48    xoffset=1     yoffset=17    xadvance=26    page=0  chnl=15
char id=108  x=492   y=51    width=9     height=49    xoffset=2     yoffset=16    xadvance=12    page=0  chnl=15
char id=109  x=303   y=153   width=38    height=36    xoffset=0     yoffset=29    xadvance=37    page=0  chnl=15
char id=110  x=342   y=152   width=24    height=36    xoffset=1     yoffset=29    xadvance=26    page=0  chnl=15
char id=111  x=0     y=213   width=24    height=35    xoffset=0     yoffset=30    xadvance=24    page=0  chnl=15
char id=112  x=357   y=103   width=26    height=48    xoffset=1     yoffset=30    xadvance=27    page=0  chnl=15
char id=113  x=411   y=52    width=26    height=49    xoffset=1     yoffset=30    xadvance=27    page=0  chnl=15
char id=114  x=25    y=213   width=24    height=35    xoffset=1     yoffset=30    xadvance=25    page=0  chnl=15
char id=115  x=97    y=212   width=22    height=35    xoffset=0     yoffset=30    xadvance=23    page=0  chnl=15
char id=116  x=220   y=160   width=20    height=45    xoffset=1     yoffset=19    xadvance=22    page=0  chnl=15
char id=117  x=367   y=152   width=24    height=36    xoffset=1     yoffset=29    xadvance=26    page=0  chnl=15
char id=118  x=433   y=151   width=26    height=35    xoffset=0     yoffset=29    xadvance=25    page=0  chnl=15
char id=119  x=392   y=152   width=40    height=35    xoffset=-1    yoffset=29    xadvance=38    page=0  chnl=15
char id=120  x=132   y=211   width=26    height=34    xoffset=0     yoffset=30    xadvance=27    page=0  chnl=15
char id=121  x=486   y=0     width=25    height=50    xoffset=1     yoffset=29    xadvance=26    page=0  chnl=15
char id=122  x=74    y=212   width=22    height=35    xoffset=0     yoffset=30    xadvance=22    page=0  chnl=15
char id=123  x=56    y=0     width=26    height=63    xoffset=1     yoffset=10    xadvance=28    page=0  chnl=15
char id=124  x=151   y=0     width=9     height=63    xoffset=1     yoffset=10    xadvance=11    page=0  chnl=15
char id=125  x=29    y=0     width=26    height=63    xoffset=1     yoffset=10    xadvance=28    page=0  chnl=15
char id=126  x=316   y=190   width=27    height=13    xoffset=1     yoffset=33    xadvance=29    page=0  chnl=15
