info face="Dimbo" size=160 bold=0 italic=0 charset="" unicode=1 stretchH=100 smooth=1 aa=2 padding=0,0,0,0 spacing=1,1 outline=0
common lineHeight=160 base=133 scaleW=1024 scaleH=1024 pages=1 packed=0 alphaChnl=0 redChnl=4 greenChnl=4 blueChnl=4
page id=0 file="Dimbo160_0.png"
chars count=95
char id=32   x=1012  y=98    width=2     height=1     xoffset=0     yoffset=159   xadvance=24    page=0  chnl=15
char id=33   x=923   y=199   width=20    height=94    xoffset=1     yoffset=36    xadvance=22    page=0  chnl=15
char id=34   x=309   y=414   width=43    height=37    xoffset=2     yoffset=24    xadvance=47    page=0  chnl=15
char id=35   x=51    y=227   width=82    height=96    xoffset=2     yoffset=35    xadvance=86    page=0  chnl=15
char id=36   x=0     y=0     width=55    height=126   xoffset=3     yoffset=20    xadvance=60    page=0  chnl=15
char id=37   x=517   y=0     width=107   height=104   xoffset=3     yoffset=27    xadvance=112   page=0  chnl=15
char id=38   x=357   y=121   width=59    height=98    xoffset=1     yoffset=32    xadvance=61    page=0  chnl=15
char id=39   x=392   y=397   width=21    height=34    xoffset=2     yoffset=24    xadvance=25    page=0  chnl=15
char id=40   x=222   y=0     width=31    height=126   xoffset=2     yoffset=20    xadvance=36    page=0  chnl=15
char id=41   x=158   y=0     width=31    height=126   xoffset=3     yoffset=20    xadvance=36    page=0  chnl=15
char id=42   x=353   y=408   width=38    height=36    xoffset=2     yoffset=27    xadvance=42    page=0  chnl=15
char id=43   x=135   y=418   width=57    height=56    xoffset=2     yoffset=55    xadvance=60    page=0  chnl=15
char id=44   x=414   y=391   width=21    height=34    xoffset=2     yoffset=110   xadvance=25    page=0  chnl=15
char id=45   x=537   y=387   width=34    height=17    xoffset=2     yoffset=75    xadvance=38    page=0  chnl=15
char id=46   x=515   y=388   width=21    height=20    xoffset=2     yoffset=110   xadvance=24    page=0  chnl=15
char id=47   x=382   y=0     width=41    height=120   xoffset=-1    yoffset=23    xadvance=39    page=0  chnl=15
char id=48   x=320   y=226   width=57    height=96    xoffset=1     yoffset=30    xadvance=59    page=0  chnl=15
char id=49   x=864   y=199   width=37    height=94    xoffset=0     yoffset=32    xadvance=40    page=0  chnl=15
char id=50   x=657   y=204   width=52    height=95    xoffset=3     yoffset=30    xadvance=56    page=0  chnl=15
char id=51   x=582   y=105   width=51    height=98    xoffset=1     yoffset=30    xadvance=54    page=0  chnl=15
char id=52   x=261   y=226   width=58    height=96    xoffset=1     yoffset=30    xadvance=61    page=0  chnl=15
char id=53   x=959   y=101   width=52    height=97    xoffset=1     yoffset=29    xadvance=54    page=0  chnl=15
char id=54   x=123   y=127   width=54    height=99    xoffset=3     yoffset=28    xadvance=58    page=0  chnl=15
char id=55   x=154   y=324   width=48    height=92    xoffset=4     yoffset=31    xadvance=54    page=0  chnl=15
char id=56   x=529   y=105   width=52    height=98    xoffset=1     yoffset=30    xadvance=54    page=0  chnl=15
char id=57   x=68    y=127   width=54    height=99    xoffset=2     yoffset=28    xadvance=58    page=0  chnl=15
char id=58   x=754   y=299   width=21    height=70    xoffset=2     yoffset=60    xadvance=24    page=0  chnl=15
char id=59   x=336   y=323   width=21    height=84    xoffset=2     yoffset=60    xadvance=25    page=0  chnl=15
char id=60   x=358   y=323   width=47    height=73    xoffset=2     yoffset=43    xadvance=51    page=0  chnl=15
char id=61   x=193   y=417   width=54    height=50    xoffset=2     yoffset=55    xadvance=58    page=0  chnl=15
char id=62   x=406   y=317   width=47    height=73    xoffset=2     yoffset=43    xadvance=51    page=0  chnl=15
char id=63   x=0     y=227   width=50    height=97    xoffset=4     yoffset=33    xadvance=56    page=0  chnl=15
char id=64   x=424   y=0     width=92    height=113   xoffset=2     yoffset=39    xadvance=96    page=0  chnl=15
char id=65   x=0     y=127   width=67    height=99    xoffset=-1    yoffset=30    xadvance=63    page=0  chnl=15
char id=66   x=417   y=121   width=56    height=98    xoffset=2     yoffset=30    xadvance=60    page=0  chnl=15
char id=67   x=849   y=101   width=55    height=97    xoffset=3     yoffset=32    xadvance=58    page=0  chnl=15
char id=68   x=905   y=101   width=53    height=97    xoffset=3     yoffset=31    xadvance=57    page=0  chnl=15
char id=69   x=203   y=324   width=47    height=92    xoffset=3     yoffset=34    xadvance=52    page=0  chnl=15
char id=70   x=251   y=324   width=43    height=92    xoffset=3     yoffset=33    xadvance=48    page=0  chnl=15
char id=71   x=295   y=127   width=61    height=98    xoffset=1     yoffset=32    xadvance=64    page=0  chnl=15
char id=72   x=474   y=114   width=54    height=98    xoffset=3     yoffset=33    xadvance=59    page=0  chnl=15
char id=73   x=1001  y=199   width=20    height=93    xoffset=2     yoffset=33    xadvance=25    page=0  chnl=15
char id=74   x=810   y=202   width=53    height=94    xoffset=4     yoffset=33    xadvance=60    page=0  chnl=15
char id=75   x=944   y=199   width=56    height=93    xoffset=3     yoffset=35    xadvance=59    page=0  chnl=15
char id=76   x=634   y=105   width=50    height=98    xoffset=3     yoffset=30    xadvance=55    page=0  chnl=15
char id=77   x=798   y=0     width=82    height=100   xoffset=2     yoffset=31    xadvance=86    page=0  chnl=15
char id=78   x=735   y=104   width=57    height=97    xoffset=3     yoffset=31    xadvance=62    page=0  chnl=15
char id=79   x=543   y=204   width=60    height=95    xoffset=1     yoffset=32    xadvance=63    page=0  chnl=15
char id=80   x=604   y=204   width=52    height=95    xoffset=3     yoffset=32    xadvance=58    page=0  chnl=15
char id=81   x=680   y=0     width=61    height=103   xoffset=1     yoffset=32    xadvance=63    page=0  chnl=15
char id=82   x=625   y=0     width=54    height=104   xoffset=3     yoffset=30    xadvance=59    page=0  chnl=15
char id=83   x=742   y=0     width=55    height=103   xoffset=3     yoffset=29    xadvance=60    page=0  chnl=15
char id=84   x=710   y=203   width=50    height=95    xoffset=3     yoffset=33    xadvance=55    page=0  chnl=15
char id=85   x=793   y=104   width=55    height=97    xoffset=3     yoffset=31    xadvance=60    page=0  chnl=15
char id=86   x=134   y=227   width=64    height=96    xoffset=-2    yoffset=31    xadvance=60    page=0  chnl=15
char id=87   x=449   y=220   width=93    height=95    xoffset=-3    yoffset=32    xadvance=88    page=0  chnl=15
char id=88   x=199   y=227   width=61    height=96    xoffset=0     yoffset=33    xadvance=60    page=0  chnl=15
char id=89   x=230   y=127   width=64    height=98    xoffset=-3    yoffset=30    xadvance=55    page=0  chnl=15
char id=90   x=104   y=324   width=49    height=93    xoffset=3     yoffset=32    xadvance=54    page=0  chnl=15
char id=91   x=190   y=0     width=31    height=126   xoffset=3     yoffset=20    xadvance=36    page=0  chnl=15
char id=92   x=340   y=0     width=41    height=120   xoffset=-1    yoffset=23    xadvance=39    page=0  chnl=15
char id=93   x=254   y=0     width=31    height=126   xoffset=3     yoffset=20    xadvance=36    page=0  chnl=15
char id=94   x=248   y=417   width=60    height=40    xoffset=2     yoffset=20    xadvance=64    page=0  chnl=15
char id=95   x=543   y=300   width=47    height=14    xoffset=-1    yoffset=142   xadvance=46    page=0  chnl=15
char id=96   x=436   y=391   width=24    height=26    xoffset=1     yoffset=29    xadvance=26    page=0  chnl=15
char id=97   x=609   y=300   width=48    height=70    xoffset=2     yoffset=59    xadvance=52    page=0  chnl=15
char id=98   x=0     y=325   width=51    height=93    xoffset=2     yoffset=36    xadvance=55    page=0  chnl=15
char id=99   x=47    y=419   width=44    height=68    xoffset=1     yoffset=59    xadvance=48    page=0  chnl=15
char id=100  x=52    y=324   width=51    height=93    xoffset=2     yoffset=36    xadvance=55    page=0  chnl=15
char id=101  x=0     y=419   width=46    height=68    xoffset=1     yoffset=61    xadvance=49    page=0  chnl=15
char id=102  x=932   y=0     width=42    height=100   xoffset=1     yoffset=30    xadvance=46    page=0  chnl=15
char id=103  x=881   y=0     width=50    height=100   xoffset=2     yoffset=60    xadvance=54    page=0  chnl=15
char id=104  x=975   y=0     width=48    height=97    xoffset=2     yoffset=34    xadvance=52    page=0  chnl=15
char id=105  x=902   y=199   width=20    height=94    xoffset=1     yoffset=36    xadvance=22    page=0  chnl=15
char id=106  x=305   y=0     width=34    height=122   xoffset=-12   yoffset=36    xadvance=22    page=0  chnl=15
char id=107  x=761   y=202   width=48    height=95    xoffset=3     yoffset=35    xadvance=53    page=0  chnl=15
char id=108  x=430   y=220   width=18    height=96    xoffset=4     yoffset=34    xadvance=24    page=0  chnl=15
char id=109  x=454   y=316   width=73    height=71    xoffset=1     yoffset=59    xadvance=75    page=0  chnl=15
char id=110  x=776   y=298   width=47    height=69    xoffset=2     yoffset=60    xadvance=52    page=0  chnl=15
char id=111  x=972   y=293   width=47    height=68    xoffset=1     yoffset=61    xadvance=49    page=0  chnl=15
char id=112  x=378   y=220   width=51    height=96    xoffset=2     yoffset=60    xadvance=55    page=0  chnl=15
char id=113  x=178   y=127   width=51    height=99    xoffset=2     yoffset=60    xadvance=55    page=0  chnl=15
char id=114  x=707   y=300   width=46    height=70    xoffset=2     yoffset=60    xadvance=50    page=0  chnl=15
char id=115  x=824   y=297   width=44    height=69    xoffset=1     yoffset=61    xadvance=47    page=0  chnl=15
char id=116  x=295   y=323   width=40    height=90    xoffset=2     yoffset=39    xadvance=44    page=0  chnl=15
char id=117  x=658   y=300   width=48    height=70    xoffset=2     yoffset=59    xadvance=52    page=0  chnl=15
char id=118  x=869   y=294   width=51    height=68    xoffset=0     yoffset=60    xadvance=50    page=0  chnl=15
char id=119  x=528   y=316   width=80    height=70    xoffset=-2    yoffset=59    xadvance=77    page=0  chnl=15
char id=120  x=921   y=294   width=50    height=68    xoffset=1     yoffset=60    xadvance=53    page=0  chnl=15
char id=121  x=685   y=104   width=49    height=98    xoffset=2     yoffset=60    xadvance=53    page=0  chnl=15
char id=122  x=92    y=418   width=42    height=68    xoffset=1     yoffset=61    xadvance=45    page=0  chnl=15
char id=123  x=56    y=0     width=50    height=126   xoffset=2     yoffset=20    xadvance=55    page=0  chnl=15
char id=124  x=286   y=0     width=18    height=126   xoffset=2     yoffset=20    xadvance=21    page=0  chnl=15
char id=125  x=107   y=0     width=50    height=126   xoffset=2     yoffset=20    xadvance=55    page=0  chnl=15
char id=126  x=461   y=388   width=53    height=24    xoffset=3     yoffset=68    xadvance=58    page=0  chnl=15
