info face="Dimbo" size=30 bold=0 italic=0 charset="" unicode=1 stretchH=100 smooth=1 aa=2 padding=0,0,0,0 spacing=1,1 outline=0
common lineHeight=30 base=25 scaleW=256 scaleH=256 pages=1 packed=0 alphaChnl=0 redChnl=4 greenChnl=4 blueChnl=4
page id=0 file="Dimbo30_0.png"
chars count=95
char id=32   x=246   y=55    width=2     height=1     xoffset=0     yoffset=29    xadvance=4     page=0  chnl=15
char id=33   x=217   y=40    width=5     height=18    xoffset=0     yoffset=7     xadvance=4     page=0  chnl=15
char id=34   x=207   y=59    width=9     height=8     xoffset=0     yoffset=4     xadvance=9     page=0  chnl=15
char id=35   x=187   y=0     width=16    height=19    xoffset=0     yoffset=6     xadvance=16    page=0  chnl=15
char id=36   x=0     y=0     width=11    height=24    xoffset=0     yoffset=4     xadvance=11    page=0  chnl=15
char id=37   x=130   y=0     width=21    height=20    xoffset=0     yoffset=5     xadvance=21    page=0  chnl=15
char id=38   x=14    y=25    width=12    height=19    xoffset=0     yoffset=6     xadvance=11    page=0  chnl=15
char id=39   x=226   y=59    width=5     height=7     xoffset=0     yoffset=4     xadvance=4     page=0  chnl=15
char id=40   x=52    y=0     width=6     height=24    xoffset=0     yoffset=4     xadvance=7     page=0  chnl=15
char id=41   x=36    y=0     width=7     height=24    xoffset=0     yoffset=4     xadvance=6     page=0  chnl=15
char id=42   x=217   y=59    width=8     height=7     xoffset=0     yoffset=5     xadvance=8     page=0  chnl=15
char id=43   x=169   y=60    width=12    height=11    xoffset=0     yoffset=10    xadvance=11    page=0  chnl=15
char id=44   x=238   y=58    width=5     height=6     xoffset=0     yoffset=21    xadvance=4     page=0  chnl=15
char id=45   x=17    y=79    width=7     height=3     xoffset=0     yoffset=14    xadvance=7     page=0  chnl=15
char id=46   x=0     y=79    width=5     height=4     xoffset=0     yoffset=21    xadvance=4     page=0  chnl=15
char id=47   x=81    y=0     width=9     height=23    xoffset=0     yoffset=4     xadvance=7     page=0  chnl=15
char id=48   x=144   y=41    width=11    height=18    xoffset=0     yoffset=6     xadvance=11    page=0  chnl=15
char id=49   x=208   y=40    width=8     height=18    xoffset=0     yoffset=6     xadvance=7     page=0  chnl=15
char id=50   x=173   y=21    width=10    height=19    xoffset=0     yoffset=5     xadvance=10    page=0  chnl=15
char id=51   x=206   y=20    width=10    height=19    xoffset=0     yoffset=5     xadvance=10    page=0  chnl=15
char id=52   x=40    y=25    width=12    height=19    xoffset=0     yoffset=5     xadvance=11    page=0  chnl=15
char id=53   x=138   y=21    width=11    height=19    xoffset=0     yoffset=5     xadvance=10    page=0  chnl=15
char id=54   x=90    y=24    width=11    height=19    xoffset=0     yoffset=5     xadvance=11    page=0  chnl=15
char id=55   x=229   y=40    width=10    height=17    xoffset=0     yoffset=6     xadvance=10    page=0  chnl=15
char id=56   x=150   y=21    width=11    height=19    xoffset=0     yoffset=5     xadvance=10    page=0  chnl=15
char id=57   x=66    y=25    width=11    height=19    xoffset=0     yoffset=5     xadvance=11    page=0  chnl=15
char id=58   x=102   y=63    width=5     height=14    xoffset=0     yoffset=11    xadvance=4     page=0  chnl=15
char id=59   x=240   y=40    width=5     height=16    xoffset=0     yoffset=11    xadvance=4     page=0  chnl=15
char id=60   x=16    y=64    width=10    height=14    xoffset=0     yoffset=8     xadvance=9     page=0  chnl=15
char id=61   x=182   y=60    width=11    height=10    xoffset=0     yoffset=10    xadvance=11    page=0  chnl=15
char id=62   x=38    y=64    width=10    height=14    xoffset=0     yoffset=8     xadvance=9     page=0  chnl=15
char id=63   x=228   y=20    width=10    height=19    xoffset=0     yoffset=6     xadvance=10    page=0  chnl=15
char id=64   x=99    y=0     width=18    height=22    xoffset=0     yoffset=7     xadvance=18    page=0  chnl=15
char id=65   x=0     y=25    width=13    height=19    xoffset=0     yoffset=6     xadvance=12    page=0  chnl=15
char id=66   x=53    y=25    width=12    height=19    xoffset=0     yoffset=5     xadvance=11    page=0  chnl=15
char id=67   x=78    y=24    width=11    height=19    xoffset=0     yoffset=6     xadvance=11    page=0  chnl=15
char id=68   x=72    y=45    width=11    height=18    xoffset=0     yoffset=6     xadvance=11    page=0  chnl=15
char id=69   x=167   y=41    width=10    height=18    xoffset=0     yoffset=6     xadvance=10    page=0  chnl=15
char id=70   x=189   y=41    width=9     height=18    xoffset=0     yoffset=6     xadvance=9     page=0  chnl=15
char id=71   x=27    y=25    width=12    height=19    xoffset=0     yoffset=6     xadvance=12    page=0  chnl=15
char id=72   x=102   y=23    width=11    height=19    xoffset=0     yoffset=6     xadvance=11    page=0  chnl=15
char id=73   x=250   y=20    width=5     height=18    xoffset=0     yoffset=6     xadvance=4     page=0  chnl=15
char id=74   x=108   y=43    width=11    height=18    xoffset=0     yoffset=6     xadvance=11    page=0  chnl=15
char id=75   x=120   y=43    width=11    height=18    xoffset=0     yoffset=6     xadvance=11    page=0  chnl=15
char id=76   x=162   y=21    width=10    height=19    xoffset=0     yoffset=5     xadvance=10    page=0  chnl=15
char id=77   x=204   y=0     width=16    height=19    xoffset=0     yoffset=6     xadvance=16    page=0  chnl=15
char id=78   x=34    y=45    width=12    height=18    xoffset=0     yoffset=6     xadvance=12    page=0  chnl=15
char id=79   x=47    y=45    width=12    height=18    xoffset=0     yoffset=6     xadvance=12    page=0  chnl=15
char id=80   x=132   y=42    width=11    height=18    xoffset=0     yoffset=6     xadvance=11    page=0  chnl=15
char id=81   x=152   y=0     width=12    height=20    xoffset=0     yoffset=6     xadvance=12    page=0  chnl=15
char id=82   x=118   y=0     width=11    height=21    xoffset=0     yoffset=5     xadvance=11    page=0  chnl=15
char id=83   x=165   y=0     width=11    height=20    xoffset=0     yoffset=5     xadvance=11    page=0  chnl=15
char id=84   x=156   y=41    width=10    height=18    xoffset=0     yoffset=6     xadvance=10    page=0  chnl=15
char id=85   x=84    y=44    width=11    height=18    xoffset=0     yoffset=6     xadvance=11    page=0  chnl=15
char id=86   x=20    y=45    width=13    height=18    xoffset=0     yoffset=6     xadvance=11    page=0  chnl=15
char id=87   x=0     y=45    width=19    height=18    xoffset=-1    yoffset=6     xadvance=16    page=0  chnl=15
char id=88   x=221   y=0     width=13    height=19    xoffset=0     yoffset=6     xadvance=11    page=0  chnl=15
char id=89   x=235   y=0     width=13    height=19    xoffset=-1    yoffset=5     xadvance=10    page=0  chnl=15
char id=90   x=178   y=41    width=10    height=18    xoffset=0     yoffset=6     xadvance=10    page=0  chnl=15
char id=91   x=59    y=0     width=6     height=24    xoffset=0     yoffset=4     xadvance=7     page=0  chnl=15
char id=92   x=71    y=0     width=9     height=23    xoffset=0     yoffset=4     xadvance=7     page=0  chnl=15
char id=93   x=44    y=0     width=7     height=24    xoffset=0     yoffset=4     xadvance=6     page=0  chnl=15
char id=94   x=194   y=60    width=12    height=8     xoffset=0     yoffset=4     xadvance=12    page=0  chnl=15
char id=95   x=6     y=79    width=10    height=3     xoffset=0     yoffset=27    xadvance=8     page=0  chnl=15
char id=96   x=232   y=58    width=5     height=6     xoffset=0     yoffset=5     xadvance=5     page=0  chnl=15
char id=97   x=137   y=61    width=10    height=13    xoffset=0     yoffset=11    xadvance=10    page=0  chnl=15
char id=98   x=96    y=44    width=11    height=18    xoffset=0     yoffset=7     xadvance=10    page=0  chnl=15
char id=99   x=159   y=60    width=9     height=13    xoffset=0     yoffset=11    xadvance=9     page=0  chnl=15
char id=100  x=60    y=45    width=11    height=18    xoffset=0     yoffset=7     xadvance=10    page=0  chnl=15
char id=101  x=82    y=64    width=9     height=14    xoffset=0     yoffset=11    xadvance=9     page=0  chnl=15
char id=102  x=177   y=0     width=9     height=20    xoffset=0     yoffset=5     xadvance=8     page=0  chnl=15
char id=103  x=195   y=20    width=10    height=19    xoffset=0     yoffset=11    xadvance=10    page=0  chnl=15
char id=104  x=184   y=21    width=10    height=19    xoffset=0     yoffset=6     xadvance=10    page=0  chnl=15
char id=105  x=223   y=40    width=5     height=18    xoffset=0     yoffset=7     xadvance=4     page=0  chnl=15
char id=106  x=91    y=0     width=7     height=23    xoffset=-2    yoffset=7     xadvance=4     page=0  chnl=15
char id=107  x=217   y=20    width=10    height=19    xoffset=0     yoffset=6     xadvance=10    page=0  chnl=15
char id=108  x=249   y=0     width=4     height=19    xoffset=0     yoffset=6     xadvance=4     page=0  chnl=15
char id=109  x=0     y=64    width=15    height=14    xoffset=0     yoffset=11    xadvance=14    page=0  chnl=15
char id=110  x=60    y=64    width=10    height=14    xoffset=0     yoffset=11    xadvance=10    page=0  chnl=15
char id=111  x=71    y=64    width=10    height=14    xoffset=0     yoffset=11    xadvance=9     page=0  chnl=15
char id=112  x=114   y=23    width=11    height=19    xoffset=0     yoffset=11    xadvance=10    page=0  chnl=15
char id=113  x=126   y=22    width=11    height=19    xoffset=0     yoffset=11    xadvance=10    page=0  chnl=15
char id=114  x=27    y=64    width=10    height=14    xoffset=0     yoffset=11    xadvance=9     page=0  chnl=15
char id=115  x=246   y=40    width=9     height=14    xoffset=0     yoffset=11    xadvance=9     page=0  chnl=15
char id=116  x=199   y=40    width=8     height=18    xoffset=0     yoffset=7     xadvance=8     page=0  chnl=15
char id=117  x=49    y=64    width=10    height=14    xoffset=0     yoffset=11    xadvance=10    page=0  chnl=15
char id=118  x=125   y=62    width=11    height=13    xoffset=0     yoffset=11    xadvance=9     page=0  chnl=15
char id=119  x=108   y=62    width=16    height=13    xoffset=0     yoffset=11    xadvance=14    page=0  chnl=15
char id=120  x=148   y=60    width=10    height=13    xoffset=0     yoffset=11    xadvance=10    page=0  chnl=15
char id=121  x=239   y=20    width=10    height=19    xoffset=0     yoffset=11    xadvance=10    page=0  chnl=15
char id=122  x=92    y=63    width=9     height=14    xoffset=0     yoffset=11    xadvance=8     page=0  chnl=15
char id=123  x=12    y=0     width=11    height=24    xoffset=0     yoffset=4     xadvance=10    page=0  chnl=15
char id=124  x=66    y=0     width=4     height=24    xoffset=0     yoffset=4     xadvance=4     page=0  chnl=15
char id=125  x=24    y=0     width=11    height=24    xoffset=0     yoffset=4     xadvance=10    page=0  chnl=15
char id=126  x=244   y=57    width=11    height=5     xoffset=0     yoffset=13    xadvance=11    page=0  chnl=15
