{
    "applications": {
        "TicTacTotal": {
            "applicationId": "fAlkShaoNHmfv5U9wpA8aVhyoOjesJ7O9XiX1PVT", 
            "masterKey": "xMOwm8BMywidZbhQjP1fz9QaRHX2uTa7XCgIPzjn"
        }, 
        "_default": {
            "link": "TicTacTotal"
        }
    }, 
    "global": {
        "parseVersion": "1.2.2"
    }
}